Medición y diseño de investigación
…
Con el pipeline especificamos el dataframe solamente una vez al principio, y luego todas las funciones que vamos utilizando no necesitan especificación. De esta forma nos enfocamos en la transformación y no en el objeto.

.codefont[

```r
gapminder_07_america <- gapminder %>% 
  filter(year == 2007 & continent == "Americas") %>% 
  select(-continent)

print(gapminder_07_america)
```

```
## # A tibble: 25 × 5
##    country             year lifeExp       pop gdpPercap
##    <fct>              <int>   <dbl>     <int>     <dbl>
##  1 Argentina           2007    75.3  40301927    12779.
##  2 Bolivia             2007    65.6   9119152     3822.
##  3 Brazil              2007    72.4 190010647     9066.
##  4 Canada              2007    80.7  33390141    36319.
##  5 Chile               2007    78.6  16284741    13172.
##  6 Colombia            2007    72.9  44227550     7007.
##  7 Costa Rica          2007    78.8   4133884     9645.
##  8 Cuba                2007    78.3  11416987     8948.
##  9 Dominican Republic  2007    72.2   9319622     6025.
## 10 Ecuador             2007    75.0  13755680     6873.
## # … with 15 more rows
```
…
